{"page":1,"limit":10,"explicit":false,"total":1000,"has_more":true,"list":[{"avatar_360_url":"https:\/\/s1-ssl.dmcdn.net\/AVM\/360x360-png\/iC2.jpg","username":"sarahann-jacinta"},{"avatar_360_url":"https:\/\/s1-ssl.dmcdn.net\/AVM\/360x360-png\/iC2.jpg","username":"achyuth-sage"},{"avatar_360_url":"https:\/\/s1-ssl.dmcdn.net\/AVM\/360x360-png\/iC2.jpg","username":"devanie-zmya"},{"avatar_360_url":"https:\/\/s1-ssl.dmcdn.net\/AVM\/360x360-png\/iC2.jpg","username":"muellerw"},{"avatar_360_url":"https:\/\/s1-ssl.dmcdn.net\/AVM\/360x360-png\/iC2.jpg","username":"soniya-zamyah"},{"avatar_360_url":"https:\/\/s1-ssl.dmcdn.net\/AVM\/360x360-png\/iC2.jpg","username":"mylescpenter"},{"avatar_360_url":"https:\/\/s1-ssl.dmcdn.net\/AVM\/360x360-png\/iC2.jpg","username":"thecsps-academy"},{"avatar_360_url":"https:\/\/s1-ssl.dmcdn.net\/AVM\/360x360-png\/iC2.jpg","username":"jspakes13"},{"avatar_360_url":"https:\/\/s2-ssl.dmcdn.net\/u\/8Ds_N1SsUMCoGi8J2\/360x360","username":"DarkPhoenixOnline"},{"avatar_360_url":"https:\/\/s1-ssl.dmcdn.net\/AVM\/360x360-png\/iC2.jpg","username":"gilles-parmentier"}]}